%YAML 1.1
%TAG !u! tag:unity3d.com,2011:
--- !u!162 &1
EditorUserSettings:
  m_ObjectHideFlags: 0
  serializedVersion: 4
  m_ConfigSettings:
    RecentlyUsedScenePath-0:
      value: 22424703114646680e0b0227036c6c1313191d192d3e2323620f341dc3cc7b34e7f133e5aa6b726e7717e1351027
      flags: 0
    RecentlyUsedScenePath-1:
      value: 22424703114646680e0b0227036c6c1313191d192d3e2323620f341dc3cc7b34e7f133e5aa293733294fbb721130082beb
      flags: 0
    RecentlyUsedScenePath-2:
      value: 22424703114646680e0b0227036c6c1313191d192d3e2323620f341dc3cc7b1ce7e632fae4283a39374cfa320d2a18
      flags: 0
    RecentlyUsedScenePath-3:
      value: 22424703114646680e0b0227036c6c1313191d192d3e2323620f341dc3cc7b34e7f133e5aa6b726d7717e1351027
      flags: 0
    RecentlyUsedScenePath-4:
      value: 22424703114646680e0b0227036c6c1313191d192d3e2323620f341dc3cc7b34e7f133e5aa6b726c7717e1351027
      flags: 0
    RecentlyUsedScenePath-5:
      value: 22424703114646680e0b0227036c6c1313191d192d3e2323620f341dc3cc7b34e7f133e5aa6a726c7717e1351027
      flags: 0
    RecentlyUsedScenePath-6:
      value: 22424703114646680e0b0227036c6c1313191d192d3e2323620f341dc3cc7b34e7f133e5aa6b72687717e1351027
      flags: 0
    RecentlyUsedScenePath-7:
      value: 22424703114646680e0b0227036c6c1313191d192d3e2323620f341dc3cc7b34e7f133e5aa6b726f7717e1351027
      flags: 0
    RecentlyUsedScenePath-8:
      value: 22424703114646680e0b0227036c6c1313191d192d3e2323620f341dc3cc7b34e7f133e5aa293733294fbd721130082beb
      flags: 0
    RecentlyUsedScenePath-9:
      value: 22424703114646680e0b0227036c6c1313191d192d3e2323620f341dc3cc7b34e7f133e5aa293733294fbc721130082beb
      flags: 0
    UnityEditor.ShaderGraph.Blackboard:
      value: 18135939215a0a5004000b0e15254b524c030a3f2964643d120d1230e9e93a3fd6e826abbd2e2d293c4ead313b08042de6030a0afa240c0d020be94c4ba8475d41895ac825e0100ec20313c0d91cddccd3d0c7efcca9bd8b8d91f0beb6fdd1cbfceba0b9f0b3bed8e8f5ace1ff8c978883d3f59e98969a89eacfcc
      flags: 0
    UnityEditor.ShaderGraph.FloatingWindowsLayout2:
      value: 181344140043005e1a220d3b1f364b524c0c5a27130c293326201334cee5322ca0bd30e8eb293a707b0fd0180b3d0a36fc0d3d04e649500d1002ee0b5dbd1d2c27c00ad113cb1e10e41f1addc80993b9859884a69ae6d8f0d1cda9e8fbfefaf9f9dea3fdb9ade882f0fea8e5e1928b86ccf584cdd6c38b9da190c991e48080839786c994c0c582888bddeeddbf8dba
      flags: 0
    UnityEditor.ShaderGraph.InspectorWindow:
      value: 18135939215a0a5004000b0e15254b524c1119263f2d6a722016393ce1eb3d36e5d339f9a5602b2e2c07a37e0901373ae01e0008f707250d171df81a53a546475f95548717f73713d91006c1c309d0effad0d2f9ddffa5828f91f0beb6fdd1cbfceba0b9f0b3bed8e8f5ade1ff8c978883d3f59e9f949d89eacfcc
      flags: 0
    vcSharedLogLevel:
      value: 0d5e400f0650
      flags: 0
  m_VCAutomaticAdd: 1
  m_VCDebugCom: 0
  m_VCDebugCmd: 0
  m_VCDebugOut: 0
  m_SemanticMergeMode: 2
  m_VCShowFailedCheckout: 1
  m_VCOverwriteFailedCheckoutAssets: 1
  m_VCProjectOverlayIcons: 1
  m_VCHierarchyOverlayIcons: 1
  m_VCOtherOverlayIcons: 1
  m_VCAllowAsyncUpdate: 1
